{
  "name": "mean",
  "description": "MEAN.io: Zac version",
  "version": "0.5.5",
  "private": false,
  "mean": "0.5.5",
  "scripts": {
    "start": "node server",
    "mocha": "node tools/test/run-mocha.js",
    "karma": "node node_modules/karma/bin/karma start karma.conf.js",
    "test": "gulp test",
    "test-e2e": "gulp e2e.test",
    "postinstall": "node tools/scripts/postinstall.js"
  },
  "dependencies": {
    "assetmanager": "latest",
    "async": "latest",
    "body-parser": "latest",
    "bower": "latest",
    "compression": "latest",
    "connect-flash": "latest",
    "consolidate": "latest",
    "cookie-parser": "latest",
    "errorhandler": "latest",
    "express": "latest",
    "forever": "latest",
    "gridfs-stream": "latest",
    "jsonwebtoken": "latest",
    "lodash": "latest",
    "mongoose": "latest",
    "meanio": "git+ssh://git@bitbucket.org/alphainfo/meanio.git#0.9.11",
    "morgan": "latest",
    "ms": "latest",
    "nodemailer": "latest",
    "npm": "^2.1.0",
    "passport-facebook": "latest",
    "passport-github": "latest",
    "passport-google-oauth": "latest",
    "passport-linkedin": "latest",
    "passport-local": "latest",
    "passport-twitter": "latest",
    "q": "latest",
    "request": "latest",
    "serve-favicon": "latest",
    "shelljs": "latest",
    "swig": "latest",
    "view-helpers": "latest"
  },
  "devDependencies": {
    "connect-modrewrite": "latest",
    "del": "latest",
    "expect.js": "latest",
    "gulp": "latest",
    "gulp-coffee": "latest",
    "gulp-concat": "latest",
    "gulp-csslint": "latest",
    "gulp-cssmin": "latest",
    "gulp-jshint": "latest",
    "gulp-less": "latest",
    "gulp-livereload": "latest",
    "gulp-load-plugins": "latest",
    "gulp-mocha": "latest",
    "gulp-nodemon": "latest",
    "gulp-uglify": "latest",
    "gulp-util": "latest",
    "jasmine": "latest",
    "jasmine-reporters": "latest",
    "jshint": "latest",
    "jshint-stylish": "latest",
    "karma": "latest",
    "karma-chrome-launcher": "latest",
    "karma-coffee-preprocessor": "latest",
    "karma-coverage": "latest",
    "karma-firefox-launcher": "latest",
    "karma-html2js-preprocessor": "latest",
    "karma-jasmine": "latest",
    "karma-junit-reporter": "latest",
    "karma-ng-html2js-preprocessor": "latest",
    "karma-phantomjs-launcher": "latest",
    "karma-phantomjs-shim": "latest",
    "karma-requirejs": "latest",
    "karma-script-launcher": "latest",
    "mocha": "latest",
    "protractor": "latest",
    "require-dir": "latest",
    "requirejs": "latest",
    "supertest": "latest",
    "through": "latest"
  }
}
